Human Genome Analysis Lab 9 : Working with COVID-19 reporting data
…
If we try to graph by Country_Region there are entries that have the same character (e.g.China and US) so we need to summarise the data we are interested in graphing

report_05_06_2020 %>% 
  group_by(Country_Region) %>% 
  summarise(Deaths = sum(Deaths)) %>% 
  arrange(desc(Deaths))

## # A tibble: 187 x 2
##    Country_Region Deaths
##    <chr>           <dbl>
##  1 US              73431
##  2 United Kingdom  30150
##  3 Italy           29684
##  4 Spain           25857
##  5 France          25812
##  6 Brazil           8588
##  7 Belgium          8339
##  8 Germany          7275
##  9 Iran             6418
## 10 Netherlands      5221
## # ... with 177 more rows
…
